module Kufar

go 1.22

require (
	github.com/google/uuid v1.6.0
	github.com/ilyakaznacheev/cleanenv v1.5.0
	github.com/jackc/pgx/v5 v5.5.5
	github.com/stretchr/testify v1.8.4
	golang.org/x/crypto v0.23.0
)

require (
	github.com/BurntSushi/toml v1.3.2 // indirect
	github.com/davecgh/go-spew v1.1.1 // indirect
	github.com/jackc/pgpassfile v1.0.0 // indirect
	github.com/jackc/pgservicefile v0.0.0-20221227161230-091c0ba34f0a // indirect
	github.com/joho/godotenv v1.5.1 // indirect
	github.com/kr/pretty v0.3.1 // indirect
	github.com/pmezard/go-difflib v1.0.0 // indirect
	github.com/rogpeppe/go-internal v1.10.0 // indirect
	golang.org/x/sync v0.7.0 // indirect
	golang.org/x/text v0.15.0 // indirect
	gopkg.in/yaml.v3 v3.0.1 // indirect
	olympos.io/encoding/edn v0.0.0-20201019073823-d3554ca0b0a3 // indirect
)
